<svg width="24" height="23" viewBox="0 0 24 23" fill="none" xmlns="http://www.w3.org/2000/svg">
<path d="M0 0.5H24V17H8.56641L3 22.5664V17H0V0.5ZM22.5 15.5V2H1.5V15.5H4.5V18.9336L7.93359 15.5H22.5ZM21 3.5V14H3V3.5H21ZM6 12.5V9.5H4.5V12.5H6ZM6 8V5H4.5V8H6ZM19.5 12.5V9.5H7.5V12.5H19.5ZM19.5 8V5H7.5V8H19.5Z" fill="white"/>
</svg>
