<svg width="20" height="21" viewBox="0 0 20 21" fill="none" xmlns="http://www.w3.org/2000/svg">
<path fill-rule="evenodd" clip-rule="evenodd" d="M10 0.0986328C4.486 0.0986328 0 4.58463 0 10.0986C0 15.6126 4.486 20.0986 10 20.0986C15.514 20.0986 20 15.6126 20 10.0986C20 4.58463 15.514 0.0986328 10 0.0986328ZM10 18.0986C5.589 18.0986 2 14.5096 2 10.0986C2 5.68763 5.589 2.09863 10 2.09863C14.411 2.09863 18 5.68763 18 10.0986C18 14.5096 14.411 18.0986 10 18.0986ZM12.293 7.39163L9 10.6846L7.707 9.39163C7.316 9.00063 6.684 9.00063 6.293 9.39163C5.902 9.78263 5.902 10.4146 6.293 10.8056L8.293 12.8056C8.488 13.0006 8.744 13.0986 9 13.0986C9.256 13.0986 9.512 13.0006 9.707 12.8056L13.707 8.80563C14.098 8.41463 14.098 7.78263 13.707 7.39163C13.316 7.00063 12.684 7.00063 12.293 7.39163Z" fill="#049304"/>
</svg>
