<svg width="19" height="19" viewBox="0 0 19 19" fill="none" xmlns="http://www.w3.org/2000/svg">
<path d="M1.19531 14.7297L13.6953 1.92969L17.0286 5.12969L4.52865 17.9297H1.19531V14.7297Z" stroke="#B7BCC0" stroke-width="2"/>
</svg>
