<svg width="20" height="20" viewBox="0 0 20 20" fill="none" xmlns="http://www.w3.org/2000/svg">
<path fill-rule="evenodd" clip-rule="evenodd" d="M10 16L6 12H14L10 16ZM10 4L14 8H6L10 4Z" fill="#5C6AC4"/>
</svg>
